C:\Users\DamineeSN\Desktop\JAVA\labs\EmployeeCrudUsingJsp\src\main\java\EmployeeEx\servletfiles\AddEmployeeServlet.java
C:\Users\DamineeSN\Desktop\JAVA\labs\EmployeeCrudUsingJsp\src\main\java\EmployeeEx\servletfiles\EmployeeForm.java
C:\Users\DamineeSN\Desktop\JAVA\labs\EmployeeCrudUsingJsp\src\main\java\EmployeeEx\servletfiles\DeleteEmployeeServlet.java
C:\Users\DamineeSN\Desktop\JAVA\labs\EmployeeCrudUsingJsp\src\main\java\EmployeeEx\javafiles\Employee.java
C:\Users\DamineeSN\Desktop\JAVA\labs\EmployeeCrudUsingJsp\src\main\java\EmployeeEx\servletfiles\EmployeeRegisterForm.java
C:\Users\DamineeSN\Desktop\JAVA\labs\EmployeeCrudUsingJsp\src\main\java\EmployeeEx\servletfiles\UpdateEmployeeServlet.java
C:\Users\DamineeSN\Desktop\JAVA\labs\EmployeeCrudUsingJsp\src\main\java\EmployeeEx\servletfiles\ListEmployeeServlet.java
C:\Users\DamineeSN\Desktop\JAVA\labs\EmployeeCrudUsingJsp\src\main\java\EmployeeEx\javafiles\EmployeeDAO.java
C:\Users\DamineeSN\Desktop\JAVA\labs\EmployeeCrudUsingJsp\src\main\java\EmployeeEx\javafiles\EmpInterface.java
C:\Users\DamineeSN\Desktop\JAVA\labs\EmployeeCrudUsingJsp\src\main\java\EmployeeEx\javafiles\EmployeeService.java
