com\examples\spring\web\mvc\model\Register.class
com\examples\spring\web\mvc\controller\LoginController.class
com\examples\spring\web\mvc\controller\HomeController.class
com\examples\spring\web\mvc\interceptor\SessionHandler.class
com\examples\spring\web\mvc\model\Employee.class
com\examples\spring\web\mvc\validator\EmployeeValidator.class
com\examples\spring\web\mvc\controller\EmployeeController.class
com\examples\spring\web\mvc\controller\RegisterController.class
com\examples\spring\web\mvc\model\Login.class
com\examples\spring\web\mvc\service\RegisterService.class
com\examples\spring\web\mvc\exception\SpringException.class
com\examples\spring\web\mvc\service\EmployeeService.class
com\examples\spring\web\mvc\exception\LoginException.class
