-------------------------------------------------------------------------------
Test set: com.examples.spring.boot.web.SpringBootMvcGreetingsExApplicationTests
-------------------------------------------------------------------------------
Tests run: 1, Failures: 0, Errors: 0, Skipped: 0, Time elapsed: 6.156 s - in com.examples.spring.boot.web.SpringBootMvcGreetingsExApplicationTests
